/home/urion/Programming/IdeaProjects/taxiapp/src/main/java/taxiapp/rest/resources/lists/LocationListResource.java
/home/urion/Programming/IdeaProjects/taxiapp/src/main/java/taxiapp/rest/resources/assembling/lists/CarListResourceAssembler.java
/home/urion/Programming/IdeaProjects/taxiapp/src/main/java/taxiapp/rest/resources/assembling/OrderResourceAssembler.java
/home/urion/Programming/IdeaProjects/taxiapp/src/main/java/taxiapp/core/models/logic/implementation/OrdersProcessor.java
/home/urion/Programming/IdeaProjects/taxiapp/src/main/java/taxiapp/core/models/logic/implementation/Map.java
/home/urion/Programming/IdeaProjects/taxiapp/src/main/java/taxiapp/rest/resources/assembling/lists/RoadListResourceAssembler.java
/home/urion/Programming/IdeaProjects/taxiapp/src/main/java/taxiapp/rest/resources/lists/RoadListResource.java
/home/urion/Programming/IdeaProjects/taxiapp/src/main/java/taxiapp/core/DAL/implementation/RoadRepository.java
/home/urion/Programming/IdeaProjects/taxiapp/src/main/java/taxiapp/rest/resources/lists/CarListResource.java
/home/urion/Programming/IdeaProjects/taxiapp/src/main/java/taxiapp/core/models/entities/Car.java
/home/urion/Programming/IdeaProjects/taxiapp/src/main/java/taxiapp/rest/resources/assembling/RoadResourceAssembler.java
/home/urion/Programming/IdeaProjects/taxiapp/src/main/java/taxiapp/core/services/exceptions/OrderExceptions/OrderAlreadyActiveException.java
/home/urion/Programming/IdeaProjects/taxiapp/src/main/java/taxiapp/core/services/exceptions/OtherExceptions/LocationAlreadyExistsException.java
/home/urion/Programming/IdeaProjects/taxiapp/src/main/java/taxiapp/core/services/exceptions/OrderExceptions/OrderCannotBeRejectedException.java
/home/urion/Programming/IdeaProjects/taxiapp/src/main/java/taxiapp/core/services/util/OrdersList.java
/home/urion/Programming/IdeaProjects/taxiapp/src/main/java/taxiapp/core/services/interfaces/IRoadService.java
/home/urion/Programming/IdeaProjects/taxiapp/src/main/java/taxiapp/core/services/exceptions/OtherExceptions/NoLocationsException.java
/home/urion/Programming/IdeaProjects/taxiapp/src/main/java/taxiapp/core/services/interfaces/ICarService.java
/home/urion/Programming/IdeaProjects/taxiapp/src/main/java/taxiapp/rest/resources/LocationResource.java
/home/urion/Programming/IdeaProjects/taxiapp/src/main/java/taxiapp/core/services/exceptions/CarExceptions/NoAvailableCarsException.java
/home/urion/Programming/IdeaProjects/taxiapp/src/main/java/taxiapp/core/services/implementation/RoadService.java
/home/urion/Programming/IdeaProjects/taxiapp/src/main/java/taxiapp/core/services/interfaces/IGenericService.java
/home/urion/Programming/IdeaProjects/taxiapp/src/main/java/taxiapp/rest/exceptions/ConflictException.java
/home/urion/Programming/IdeaProjects/taxiapp/src/main/java/taxiapp/core/services/exceptions/OtherExceptions/LocationDoesNotExistException.java
/home/urion/Programming/IdeaProjects/taxiapp/src/main/java/taxiapp/core/models/entities/Road.java
/home/urion/Programming/IdeaProjects/taxiapp/src/main/java/taxiapp/core/services/exceptions/CarExceptions/CarAlreadyExistsException.java
/home/urion/Programming/IdeaProjects/taxiapp/src/main/java/taxiapp/core/models/logic/interfaces/IOrdersProcessor.java
/home/urion/Programming/IdeaProjects/taxiapp/src/main/java/taxiapp/core/models/additional/OrderStatus.java
/home/urion/Programming/IdeaProjects/taxiapp/src/main/java/taxiapp/core/services/exceptions/OtherExceptions/NoRoadsException.java
/home/urion/Programming/IdeaProjects/taxiapp/src/main/java/taxiapp/core/models/logic/interfaces/IMap.java
/home/urion/Programming/IdeaProjects/taxiapp/src/main/java/taxiapp/core/services/initializer/DataBaseInitializer.java
/home/urion/Programming/IdeaProjects/taxiapp/src/main/java/taxiapp/rest/resources/RoadResource.java
/home/urion/Programming/IdeaProjects/taxiapp/src/main/java/taxiapp/core/services/exceptions/CarExceptions/CarIsAlreadyBusyException.java
/home/urion/Programming/IdeaProjects/taxiapp/src/main/java/taxiapp/rest/mvc/GeneralController.java
/home/urion/Programming/IdeaProjects/taxiapp/src/main/java/taxiapp/rest/resources/assembling/lists/OrdersListResourceAssembler.java
/home/urion/Programming/IdeaProjects/taxiapp/src/main/java/taxiapp/core/DAL/implementation/OrderRepository.java
/home/urion/Programming/IdeaProjects/taxiapp/src/main/java/taxiapp/core/models/logic/implementation/PathFinder.java
/home/urion/Programming/IdeaProjects/taxiapp/src/main/java/taxiapp/rest/resources/OrderResource.java
/home/urion/Programming/IdeaProjects/taxiapp/src/main/java/taxiapp/core/services/implementation/OrderService.java
/home/urion/Programming/IdeaProjects/taxiapp/src/main/java/taxiapp/rest/resources/assembling/CarResourceAssembler.java
/home/urion/Programming/IdeaProjects/taxiapp/src/main/java/taxiapp/core/services/exceptions/CarExceptions/CarIsNotBusyException.java
/home/urion/Programming/IdeaProjects/taxiapp/src/main/java/taxiapp/rest/exceptions/BadRequestException.java
/home/urion/Programming/IdeaProjects/taxiapp/src/main/java/taxiapp/core/models/additional/CarStatus.java
/home/urion/Programming/IdeaProjects/taxiapp/src/main/java/taxiapp/core/models/logic/interfaces/IPathFinder.java
/home/urion/Programming/IdeaProjects/taxiapp/src/main/java/taxiapp/core/services/exceptions/OrderExceptions/OrderAlreadyExistsException.java
/home/urion/Programming/IdeaProjects/taxiapp/src/main/java/taxiapp/core/services/util/LocationList.java
/home/urion/Programming/IdeaProjects/taxiapp/src/main/java/taxiapp/rest/resources/assembling/lists/LocationListResourceAssembler.java
/home/urion/Programming/IdeaProjects/taxiapp/src/main/java/taxiapp/core/services/exceptions/OtherExceptions/RoadAlreadyExistsException.java
/home/urion/Programming/IdeaProjects/taxiapp/src/main/java/taxiapp/core/models/entities/TaxiOrder.java
/home/urion/Programming/IdeaProjects/taxiapp/src/main/java/taxiapp/core/models/entities/Path.java
/home/urion/Programming/IdeaProjects/taxiapp/src/main/java/taxiapp/core/services/util/CarList.java
/home/urion/Programming/IdeaProjects/taxiapp/src/main/java/taxiapp/core/services/implementation/CarService.java
/home/urion/Programming/IdeaProjects/taxiapp/src/main/java/taxiapp/rest/resources/assembling/LocationResourceAssembler.java
/home/urion/Programming/IdeaProjects/taxiapp/src/main/java/taxiapp/core/services/exceptions/OtherExceptions/NoOrdersException.java
/home/urion/Programming/IdeaProjects/taxiapp/src/main/java/taxiapp/core/DAL/generic/GenericRepository.java
/home/urion/Programming/IdeaProjects/taxiapp/src/main/java/taxiapp/core/services/implementation/LocationService.java
/home/urion/Programming/IdeaProjects/taxiapp/src/main/java/taxiapp/rest/resources/CarResource.java
/home/urion/Programming/IdeaProjects/taxiapp/src/main/java/taxiapp/core/DAL/implementation/CarRepository.java
/home/urion/Programming/IdeaProjects/taxiapp/src/main/java/taxiapp/rest/mvc/OrdersController.java
/home/urion/Programming/IdeaProjects/taxiapp/src/main/java/taxiapp/core/services/exceptions/CarExceptions/CarIsAlreadyActiveException.java
/home/urion/Programming/IdeaProjects/taxiapp/src/main/java/taxiapp/rest/resources/lists/OrdersListResource.java
/home/urion/Programming/IdeaProjects/taxiapp/src/main/java/taxiapp/core/models/entities/Location.java
/home/urion/Programming/IdeaProjects/taxiapp/src/main/java/taxiapp/core/services/interfaces/ILocationService.java
/home/urion/Programming/IdeaProjects/taxiapp/src/main/java/taxiapp/core/DAL/implementation/LocationRepository.java
/home/urion/Programming/IdeaProjects/taxiapp/src/main/java/taxiapp/rest/testmvc/TestController.java
/home/urion/Programming/IdeaProjects/taxiapp/src/main/java/taxiapp/core/services/interfaces/IOrderService.java
/home/urion/Programming/IdeaProjects/taxiapp/src/main/java/taxiapp/core/services/exceptions/OrderExceptions/OrderAlreadyRejectedException.java
/home/urion/Programming/IdeaProjects/taxiapp/src/main/java/taxiapp/core/services/util/RoadList.java
/home/urion/Programming/IdeaProjects/taxiapp/src/main/java/taxiapp/core/services/exceptions/OrderExceptions/OrderDoesNotExistException.java
/home/urion/Programming/IdeaProjects/taxiapp/src/main/java/taxiapp/core/services/exceptions/CarExceptions/CarDoesNotExistException.java
/home/urion/Programming/IdeaProjects/taxiapp/src/main/java/taxiapp/rest/exceptions/NotFoundException.java
/home/urion/Programming/IdeaProjects/taxiapp/src/main/java/taxiapp/rest/mvc/TaxiesController.java
